%!PS
%%Title: Crickit to Trinket connections
%%Creator: John Rehwinkel (jrehwin@mac.com)
%%CreationDate: 17 July 2018
%%Pages: 1
%%EndComments
%%BeginProlog

/halve { 2 div } def
/inch { 72 mul } def
/mm   { 25.4 div inch } def

/textfont /Menlo-Regular def
/textsize 6 def
/spacing  5 def
/tm -0.2 def
/bm 1.2 def
/ycenter 0.3 def

/oradius 1.6 inch def
/oside oradius 0.4 mul def

/offset 1.3 inch def

/pagewidth 8.5 inch def
/pageheight 11 inch def

/m { moveto } def
/l { lineto } def

%%EndProlog
%%BeginSetup

textfont findfont textsize scalefont setfont
0.1 mm setlinewidth
0 setgray

%%EndSetup

%%Page: 1 1
%%BeginPageSetup
%%EndPageSetup

pagewidth halve pageheight halve translate
90 rotate

/getcolor {
	/c exch 3 mul def
	colors c get
	colors c 1 add get
	colors c 2 add get
} def

/rshow {
	/bgcolor exch def
	/fgcolor exch def
	/str exch def
	/y exch def
	/x exch def
	/w str stringwidth pop spacing add def
	/by y textsize ycenter mul sub def
	/ty by textsize add def
	/lx x spacing sub w sub def
	/rx x spacing sub def

	bgcolor getcolor setrgbcolor

	lx spacing sub by bm sub m
	rx             by bm sub l
	rx             ty tm add l
	lx spacing sub ty tm add l
	closepath
	fill

	fgcolor getcolor setrgbcolor

	lx by m
	str show

    0 setgray
} def

/lshow {
	/bgcolor exch def
	/fgcolor exch def
	/str exch def
	/y exch def
	/x exch def
	/w str stringwidth pop spacing add def
	/by y textsize ycenter mul sub def
	/ty by textsize add def
	/lx x spacing add def
	/rx x w add def

	bgcolor getcolor setrgbcolor

	lx             by bm sub m
	rx spacing add by bm sub l
	rx spacing add ty tm add l
	lx             ty tm add l
	closepath
	fill

	fgcolor getcolor setrgbcolor

	lx by m
	str show

	0 setgray
} def

/drawpads {
	/a exch def
	/n a length 5 div def

	0 1 n 1 sub {
		/b exch 5 mul def
		/x a b get inch def
		/y a b 1 add get inch def
		newpath
		x y 0.025 inch 0 360 arc
		stroke
		x y
		a b 2 add get
		a b 3 add get
		a b 4 add get
		x 0 le { rshow } { lshow } ifelse
	} for
} def

offset 0 translate

% Trinket outline
-0.3 inch  -0.48 inch m
-0.3 inch   0.45 inch l
-0.25 inch 0.45 inch 0.05 inch 180 90 arcn
-0.25 inch 0.5 inch l
-0.11 inch 0.5 inch l
-0.095 inch 0.485 inch l
 0.095 inch 0.485 inch l
 0.11 inch  0.5 inch l
 0.25 inch  0.5 inch l
 0.25 inch 0.45 inch 0.05 inch 90 0 arcn
 0.3 inch  0.45 inch l
 0.3 inch -0.46 inch l
 0.27 inch -0.49 inch l
 0.14 inch -0.49 inch l
 0.08 inch -0.55 inch l
-0.2  inch -0.55 inch l
-0.27 inch -0.48 inch l
closepath
stroke

/colors [
  0 0 0 % black
  1 1 1 % white
  1 0 0 % red
  1 1 0 % yellow
  1 .6 0 % orange
] def

/trinketpads [
-0.25  0.15 (VBAT) 0 1
-0.25  0.05 (GND) 1 0
-0.25 -0.05 (#4) 0 1
-0.25 -0.15 (#3) 0 1
-0.25 -0.25 (RESET) 0 1

 0.25  0.15 (VBUS) 0 1
 0.25  0.05 (SDA) 0 4
 0.25 -0.05 (#1) 0 1
 0.25 -0.15 (SCL) 0 3
 0.25 -0.25 (3V3) 0 2
] def

trinketpads drawpads

offset 2 mul neg 0 translate

oradius neg oside   neg m
oradius neg oside       l
oside   neg oradius     l
oside       oradius     l
oradius     oside       l
oradius     oside   neg l
oside       oradius neg l
oside   neg oradius neg l
closepath
stroke

-7.5 1 7.5 {
	-0.4   inch exch
	 0.1   inch mul
	 0.025 inch 0 360 arc
	stroke
} for

-7.5 1 3.5 {
	 0.4   inch exch
	 0.1   inch mul
	 0.025 inch 0 360 arc
	stroke
} for

-0.4 inch  0.65 inch (3V3) 0 2 rshow
-0.4 inch  0.45 inch (GND) 1 0 rshow
 0.4 inch -0.65 inch (SCL) 0 3 lshow
 0.4 inch -0.75 inch (SDA) 0 4 lshow

showpage

%%EndPage
%%Trailer
%%EOF
